{
	"page_title" : "Translation test",
	"button" : "Kuva leht Eesti keeles",
    "some_text" : "This page is in English now, press the button to change it",
    "another_text" : "Below is a table with translated headers",
    "first_column":"Column one",
    "second_column":"Column two",
    "third_column":"Column three",
    "list_item_one": "Most HTML elements can be translated using this method",    
    "list_item_four": "(page title is also translated)",
	"weblink" : "Go to Google's homepage"	
}